%YAML 1.1
%TAG !u! tag:unity3d.com,2011:
--- !u!114 &11400000
MonoBehaviour:
  m_ObjectHideFlags: 0
  m_PrefabParentObject: {fileID: 0}
  m_PrefabInternal: {fileID: 0}
  m_GameObject: {fileID: 0}
  m_Enabled: 1
  m_EditorHideFlags: 0
  m_Script: {fileID: 11500000, guid: c37135fea43ec4109938be0bb1ad577c, type: 3}
  m_Name: Chase Chaser
  m_EditorClassIdentifier: 
  actions:
  - {fileID: 11400000, guid: f631cb67c0e164ec2be08feb1916284c, type: 2}
  - {fileID: 11400000, guid: de07056671d464401acd5abcd5a6ffc0, type: 2}
  transitions:
  - decision: {fileID: 11400000, guid: b0550a04a43b648e4b08f66d4859bcb3, type: 2}
    trueState: {fileID: 11400000, guid: 8ae6905d6fd0f441e91651723957b017, type: 2}
    falseState: {fileID: 11400000, guid: a530c768c68ea4f67bd4978c7a6fc605, type: 2}
  sceneGizmosColor: {r: 0.5, g: 0.5, b: 0.5, a: 1}
