%YAML 1.1
%TAG !u! tag:unity3d.com,2011:
--- !u!114 &11400000
MonoBehaviour:
  m_ObjectHideFlags: 0
  m_PrefabParentObject: {fileID: 0}
  m_PrefabInternal: {fileID: 0}
  m_GameObject: {fileID: 0}
  m_Enabled: 1
  m_EditorHideFlags: 0
  m_Script: {fileID: 11500000, guid: c37135fea43ec4109938be0bb1ad577c, type: 3}
  m_Name: Patrol Chaser
  m_EditorClassIdentifier: 
  actions:
  - {fileID: 11400000, guid: b1cef7b6bb565400ba80747b3cce0b50, type: 2}
  transitions:
  - decision: {fileID: 11400000, guid: 0770458b6a95846efa5accfa6b54e60b, type: 2}
    trueState: {fileID: 11400000, guid: 2c8cf217660f0465faa433a683c80eb6, type: 2}
    falseState: {fileID: 11400000, guid: 8ae6905d6fd0f441e91651723957b017, type: 2}
  sceneGizmosColor: {r: 0.5, g: 0.5, b: 0.5, a: 1}
